{"component":"Store\/Productos","props":{"errors":{},"auth":{"user":null,"store_user":null},"branch":{"id":1,"name":"Luxury Fragancia","code":"LF","address":"AV LOS JAMINEZ #136 PEKIN SANTIAGO R.D","sector":"Santiago","image_url":"\/uploads\/sucursales\/sucursal_685ce2f16dc7d_1750917873.png","whatsapp":"(829) 532-5404","status":{"is_open":false,"label":"cerrado","next_change":null}},"store":{"currency":"DOP","currency_symbol":"RD$","locale":"es-DO","lang":"en"},"flash":{"success":null,"error":null},"navigation":[],"pending_transfers":0,"notifications":{"unread_count":0,"latest":[]},"training":{"active":false,"module":null,"step":0},"helpStats":null,"branches":[{"id":1,"name":"Luxury Fragancia","code":"LF","address":"AV LOS JAMINEZ #136 PEKIN SANTIAGO R.D","sector":"Santiago","image_url":"\/uploads\/sucursales\/sucursal_685ce2f16dc7d_1750917873.png","whatsapp":"(829) 532-5404","status":{"is_open":false,"label":"cerrado","next_change":null}},{"id":2,"name":"Nueva Fragancia","code":"NF","address":"C\/ Luis C. Castillo #66, villa consuelo","sector":"Consuelo","image_url":"\/uploads\/sucursales\/sucursal_685ce2ff12cd1_1750917887.png","whatsapp":"(829) 807-7885","status":{"is_open":false,"label":"cerrado","next_change":null}},{"id":3,"name":"Nuevos Olores","code":"NO","address":"Santiago","sector":"Santiago","image_url":"\/uploads\/sucursales\/sucursal_6_1753999798.png","whatsapp":"829-624-1767","status":{"is_open":false,"label":"cerrado","next_change":null}}],"tier":"mayoristas","catalogPrefix":"\/rd\/mayoristas\/lf","products":[{"id":818,"slug":"rose-goldea-delight","brand":"Bvlgari","brand_slug":"bvlgari","name":"ROSE GOLDEA DELIGHT","size":"90ml","concentration":"EDT","gender":"F","price":3950,"stock_status":"low_stock","stock_label":"Pocas unidades","is_new":true,"ribbon":null,"is_en_camino":false,"is_recent_arrival":false,"image_url":"\/storage\/products\/818-7cac5c5b-56a5-435b-978d-ef9fafecac5f.jpg","offer":null,"stock_qty":1,"eta":null,"gallery":null,"notes_pyramid":null,"accords":null,"longevity":null,"sillage":null,"popularity":null,"season_ranking":null,"occasion_ranking":null},{"id":811,"slug":"dunescape-dubai","brand":"Armaf","brand_slug":"armaf","name":"Dunescape dubai","size":"100ml","concentration":"EDP","gender":"U","price":2450,"stock_status":"in_stock","stock_label":"Disponible","is_new":true,"ribbon":null,"is_en_camino":false,"is_recent_arrival":false,"image_url":"\/storage\/products\/811-4b91fbf2-41c6-4216-bee5-c6f7fd13c300.jpg","offer":null,"stock_qty":11,"eta":null,"gallery":null,"notes_pyramid":{"top":[],"base":[],"heart":[]},"accords":[],"longevity":null,"sillage":null,"popularity":null,"season_ranking":null,"occasion_ranking":null},{"id":807,"slug":"gift-set-polo-blue-for-men-4-2-oz-edt-spray-3-piezas","brand":"Ralph Lauren","brand_slug":"ralph-lauren","name":"Gift Set Polo Blue For Men 4.2 Oz Edt Spray 3 Piezas","size":"125ml","concentration":"EDT","gender":"M","price":4250,"stock_status":"low_stock","stock_label":"Pocas unidades","is_new":true,"ribbon":null,"is_en_camino":false,"is_recent_arrival":false,"image_url":"\/storage\/products\/807-ceaff306-f7c9-45a8-9826-fcb71bccda4f.jpg","offer":null,"stock_qty":1,"eta":null,"gallery":null,"notes_pyramid":null,"accords":null,"longevity":null,"sillage":null,"popularity":null,"season_ranking":null,"occasion_ranking":null},{"id":791,"slug":"giftset-9-am-dive-3pcs","brand":"Afnan","brand_slug":"afnan","name":"GIFTSET 9 AM DIVE 3PCS","size":"100ml","concentration":"","gender":"M","price":2450,"stock_status":"low_stock","stock_label":"Pocas unidades","is_new":false,"ribbon":null,"is_en_camino":false,"is_recent_arrival":false,"image_url":"\/storage\/products\/791-7ee6c3d1-07ed-4b97-8d6f-db55d5df58df.jpg","offer":null,"stock_qty":3,"eta":null,"gallery":null,"notes_pyramid":{"top":[],"base":[],"heart":[]},"accords":[],"longevity":null,"sillage":null,"popularity":null,"season_ranking":null,"occasion_ranking":null},{"id":788,"slug":"giftset-vulcan-feu-x-liquid-brun-2pcs-34oz","brand":"French Avenue","brand_slug":"french-avenue","name":"GIFTSET VULCAN FEU X LIQUID BRUN (2PCS) 3.4OZ","size":"100ml","concentration":"","gender":"M","price":3800,"stock_status":"low_stock","stock_label":"Pocas unidades","is_new":false,"ribbon":null,"is_en_camino":false,"is_recent_arrival":false,"image_url":"\/storage\/products\/788-8e754289-e083-4d1b-8555-635d219e91b3.jpg","offer":null,"stock_qty":5,"eta":null,"gallery":null,"notes_pyramid":{"top":[],"base":[],"heart":[]},"accords":[],"longevity":null,"sillage":null,"popularity":null,"season_ranking":null,"occasion_ranking":null},{"id":787,"slug":"liquid-brun-limited-edition","brand":"French Avenue","brand_slug":"french-avenue","name":"LIQUID BRUN (LIMITED EDITION)","size":"","concentration":"","gender":"M","price":2850,"stock_status":"low_stock","stock_label":"Pocas unidades","is_new":false,"ribbon":null,"is_en_camino":false,"is_recent_arrival":false,"image_url":"\/storage\/products\/787-7cb3bcd1-a127-4022-9b6d-df4725a24abb.jpg","offer":null,"stock_qty":3,"eta":null,"gallery":null,"notes_pyramid":{"top":[],"base":[],"heart":[]},"accords":[],"longevity":null,"sillage":null,"popularity":null,"season_ranking":null,"occasion_ranking":null},{"id":729,"slug":"ferrari-red","brand":"Ferrari","brand_slug":"ferrari","name":"FERRARI RED","size":"","concentration":"","gender":"M","price":1850,"stock_status":"low_stock","stock_label":"Pocas unidades","is_new":false,"ribbon":null,"is_en_camino":false,"is_recent_arrival":false,"image_url":"https:\/\/api.dicebear.com\/9.x\/initials\/svg?seed=Ferrari+FERRARI+RED&backgroundColor=14111f&textColor=a78bfa&fontSize=32","offer":null,"stock_qty":2,"eta":null,"gallery":null,"notes_pyramid":null,"accords":null,"longevity":null,"sillage":null,"popularity":null,"season_ranking":null,"occasion_ranking":null},{"id":700,"slug":"pasha-de-cartier-eau-de-toilette","brand":"Cartier","brand_slug":"cartier","name":"PASHA DE CARTIER EAU DE TOILETTE","size":"100ml","concentration":"EDT","gender":"U","price":5050,"stock_status":"low_stock","stock_label":"Pocas unidades","is_new":false,"ribbon":null,"is_en_camino":false,"is_recent_arrival":false,"image_url":"\/uploads\/perfumes\/product_1772142949_69a0c16574292.jpg","offer":null,"stock_qty":1,"eta":null,"gallery":null,"notes_pyramid":null,"accords":null,"longevity":null,"sillage":null,"popularity":null,"season_ranking":null,"occasion_ranking":null},{"id":696,"slug":"nightly-moon","brand":"Le Bonheur Parfum","brand_slug":"le-bonheur-parfum","name":"Nightly moon","size":"100ml","concentration":"EDP","gender":"U","price":2000,"stock_status":"in_stock","stock_label":"Disponible","is_new":false,"ribbon":null,"is_en_camino":false,"is_recent_arrival":false,"image_url":"\/uploads\/perfumes\/product_1771949906_699dcf52b513b.jpg","offer":null,"stock_qty":30,"eta":null,"gallery":null,"notes_pyramid":null,"accords":null,"longevity":null,"sillage":null,"popularity":null,"season_ranking":null,"occasion_ranking":null},{"id":695,"slug":"nightly-donna","brand":"Le Bonheur Parfum","brand_slug":"le-bonheur-parfum","name":"Nightly donna","size":"100ml","concentration":"EDP","gender":"U","price":2000,"stock_status":"in_stock","stock_label":"Disponible","is_new":false,"ribbon":null,"is_en_camino":false,"is_recent_arrival":false,"image_url":"\/uploads\/perfumes\/product_1771949897_699dcf49270ce.jpg","offer":null,"stock_qty":21,"eta":null,"gallery":null,"notes_pyramid":null,"accords":null,"longevity":null,"sillage":null,"popularity":null,"season_ranking":null,"occasion_ranking":null},{"id":694,"slug":"game-of-spade-emerald-extrait","brand":"Jo Milano","brand_slug":"jo-milano","name":"GAME OF SPADE - EMERALD EXTRAIT","size":"100ml","concentration":"Extrait","gender":"U","price":4200,"stock_status":"low_stock","stock_label":"Pocas unidades","is_new":false,"ribbon":null,"is_en_camino":false,"is_recent_arrival":false,"image_url":"\/storage\/products\/694-bfec1278-7986-45e0-b3fa-1e179b51b858.jpg","offer":null,"stock_qty":2,"eta":null,"gallery":null,"notes_pyramid":null,"accords":null,"longevity":null,"sillage":null,"popularity":null,"season_ranking":null,"occasion_ranking":null},{"id":688,"slug":"tharwah-gold","brand":"Lattafa","brand_slug":"lattafa","name":" Tharwah Gold","size":"100ml","concentration":"EDP","gender":"U","price":1950,"stock_status":"low_stock","stock_label":"Pocas unidades","is_new":false,"ribbon":null,"is_en_camino":false,"is_recent_arrival":false,"image_url":"\/uploads\/perfumes\/product_1771344300_699491ac2b10a.webp","offer":null,"stock_qty":2,"eta":null,"gallery":null,"notes_pyramid":null,"accords":null,"longevity":null,"sillage":null,"popularity":null,"season_ranking":null,"occasion_ranking":null},{"id":684,"slug":"valentino-uomo-born-in-roma-purple-melancholia","brand":"Valentino","brand_slug":"valentino","name":"Valentino Uomo Born in Roma Purple Melancholia","size":"100ml","concentration":"EDP","gender":"M","price":7850,"stock_status":"low_stock","stock_label":"Pocas unidades","is_new":false,"ribbon":null,"is_en_camino":true,"is_recent_arrival":false,"image_url":"\/uploads\/perfumes\/product_1771344359_699491e76bbff.webp","offer":null,"stock_qty":2,"eta":null,"gallery":null,"notes_pyramid":null,"accords":null,"longevity":null,"sillage":null,"popularity":null,"season_ranking":null,"occasion_ranking":null},{"id":682,"slug":"intenso-by-stallion-53","brand":"Emper","brand_slug":"emper","name":"Intenso by Stallion 53","size":"100ml","concentration":"EDP","gender":"U","price":1500,"stock_status":"in_stock","stock_label":"Disponible","is_new":false,"ribbon":null,"is_en_camino":false,"is_recent_arrival":false,"image_url":"\/uploads\/perfumes\/product_1771250367_699322bf41e98.webp","offer":null,"stock_qty":7,"eta":null,"gallery":null,"notes_pyramid":null,"accords":null,"longevity":null,"sillage":null,"popularity":null,"season_ranking":null,"occasion_ranking":null},{"id":681,"slug":"lavina","brand":"Le Bonheur Parfum","brand_slug":"le-bonheur-parfum","name":"Lavina","size":"100ml","concentration":"EDP","gender":"U","price":1850,"stock_status":"in_stock","stock_label":"Disponible","is_new":false,"ribbon":null,"is_en_camino":false,"is_recent_arrival":false,"image_url":"\/uploads\/perfumes\/product_1771250384_699322d002cce.webp","offer":null,"stock_qty":6,"eta":null,"gallery":null,"notes_pyramid":null,"accords":null,"longevity":null,"sillage":null,"popularity":null,"season_ranking":null,"occasion_ranking":null},{"id":680,"slug":"sandy","brand":"Le Bonheur Parfum","brand_slug":"le-bonheur-parfum","name":"Sandy","size":"100ml","concentration":"EDP","gender":"U","price":1850,"stock_status":"in_stock","stock_label":"Disponible","is_new":false,"ribbon":null,"is_en_camino":false,"is_recent_arrival":false,"image_url":"\/uploads\/perfumes\/product_1771250389_699322d5a79cd.webp","offer":null,"stock_qty":9,"eta":null,"gallery":null,"notes_pyramid":null,"accords":null,"longevity":null,"sillage":null,"popularity":null,"season_ranking":null,"occasion_ranking":null},{"id":679,"slug":"fermony-sweet-perfume","brand":"Le Bonheur Parfum","brand_slug":"le-bonheur-parfum","name":"FERMONY SWEET PERFUME","size":"100ml","concentration":"EDP","gender":"U","price":1700,"stock_status":"in_stock","stock_label":"Disponible","is_new":false,"ribbon":null,"is_en_camino":false,"is_recent_arrival":false,"image_url":"\/uploads\/perfumes\/product_1771250377_699322c9afd17.webp","offer":null,"stock_qty":19,"eta":null,"gallery":null,"notes_pyramid":null,"accords":null,"longevity":null,"sillage":null,"popularity":null,"season_ranking":null,"occasion_ranking":null},{"id":654,"slug":"gift-set-montblanc-explorer-ultra-blue-100ml-3pcs","brand":"MONTBLANC","brand_slug":"montblanc","name":"GIFT SET MONTBLANC EXPLORER ULTRA BLUE 100ML (3PCS)","size":"100ml","concentration":"EDP","gender":"M","price":3600,"stock_status":"low_stock","stock_label":"Pocas unidades","is_new":false,"ribbon":null,"is_en_camino":false,"is_recent_arrival":false,"image_url":"\/storage\/products\/654-83a73ae4-6b11-4e79-b84b-8219ad9be23d.jpg","offer":null,"stock_qty":1,"eta":null,"gallery":null,"notes_pyramid":null,"accords":null,"longevity":null,"sillage":null,"popularity":null,"season_ranking":null,"occasion_ranking":null},{"id":639,"slug":"gift-set-montblanc-legend-red-for-men-edp-100ml-3pcs","brand":"MONTBLANC","brand_slug":"montblanc","name":"GIFT SET MONTBLANC LEGEND RED FOR MEN EDP 100ML (3PCS)","size":"100ml","concentration":"EDP","gender":"M","price":3600,"stock_status":"low_stock","stock_label":"Pocas unidades","is_new":false,"ribbon":null,"is_en_camino":false,"is_recent_arrival":false,"image_url":"\/uploads\/perfumes\/product_1770641673_6989d909aa440.webp","offer":null,"stock_qty":1,"eta":null,"gallery":null,"notes_pyramid":null,"accords":null,"longevity":null,"sillage":null,"popularity":null,"season_ranking":null,"occasion_ranking":null},{"id":625,"slug":"jimmy-choo-aqua-edt-200ml","brand":"Jimmy Choo","brand_slug":"jimmy-choo","name":"JIMMY CHOO AQUA EDT 200ML","size":"200ml","concentration":"EDT","gender":"M","price":3600,"stock_status":"low_stock","stock_label":"Pocas unidades","is_new":false,"ribbon":null,"is_en_camino":false,"is_recent_arrival":false,"image_url":"\/uploads\/perfumes\/product_1770641548_6989d88c8801c.webp","offer":null,"stock_qty":1,"eta":null,"gallery":null,"notes_pyramid":null,"accords":null,"longevity":null,"sillage":null,"popularity":null,"season_ranking":null,"occasion_ranking":null},{"id":611,"slug":"la-belle-paradise-garden-edp-30ml","brand":"Jean Paul Gaultier","brand_slug":"jean-paul-gaultier","name":"LA BELLE PARADISE GARDEN EDP 30ML","size":"30ml","concentration":"EDP","gender":"F","price":3600,"stock_status":"low_stock","stock_label":"Pocas unidades","is_new":false,"ribbon":null,"is_en_camino":false,"is_recent_arrival":false,"image_url":"\/uploads\/perfumes\/product_1770641517_6989d86d4a54e.webp","offer":null,"stock_qty":1,"eta":null,"gallery":null,"notes_pyramid":null,"accords":null,"longevity":null,"sillage":null,"popularity":null,"season_ranking":null,"occasion_ranking":null},{"id":593,"slug":"daisy-dream","brand":"Marc Jacobs","brand_slug":"marc-jacobs","name":"DAISY DREAM ","size":"100ml","concentration":"EDP","gender":"F","price":4050,"stock_status":"low_stock","stock_label":"Pocas unidades","is_new":false,"ribbon":null,"is_en_camino":false,"is_recent_arrival":false,"image_url":"\/uploads\/perfumes\/product_1770567207_6988b627de914.webp","offer":null,"stock_qty":1,"eta":null,"gallery":null,"notes_pyramid":null,"accords":null,"longevity":null,"sillage":null,"popularity":null,"season_ranking":null,"occasion_ranking":null},{"id":577,"slug":"honey-marc-jacobs","brand":"Marc Jacobs","brand_slug":"marc-jacobs","name":"HONEY MARC JACOBS","size":"","concentration":"","gender":"F","price":4050,"stock_status":"low_stock","stock_label":"Pocas unidades","is_new":false,"ribbon":null,"is_en_camino":false,"is_recent_arrival":false,"image_url":"\/uploads\/perfumes\/product_1770567286_6988b676d42f2.webp","offer":null,"stock_qty":1,"eta":null,"gallery":null,"notes_pyramid":null,"accords":null,"longevity":null,"sillage":null,"popularity":null,"season_ranking":null,"occasion_ranking":null},{"id":559,"slug":"chanel-no-5-paris","brand":"CHANEL","brand_slug":"chanel","name":"CHANEL NO 5 PARIS","size":"100ml","concentration":"EDP","gender":"U","price":6900,"stock_status":"low_stock","stock_label":"Pocas unidades","is_new":false,"ribbon":null,"is_en_camino":false,"is_recent_arrival":false,"image_url":"\/uploads\/perfumes\/product_1770477456_6987579030993.webp","offer":null,"stock_qty":1,"eta":null,"gallery":null,"notes_pyramid":null,"accords":null,"longevity":null,"sillage":null,"popularity":null,"season_ranking":null,"occasion_ranking":null}],"brands":["Afnan","Al Haramain","Arabiyat Prestige","Ariana Grande","Armaf","Benetton","Bentley","Bharara","BILLIE EILISH","Bond No. 9","BRITNEY SPEARS","Bulgary","Burberry","Bvlgari","BY JUICY COUTURE","BYREDO","Calvin Klein","Carolina Herrera","Cartier","CHANEL","CLAIBORN","CLINIQUE","CLIVE CHRISTIAN","Club de Nuit","Coach","Coco Chanel","CREED","Diesel","Dior","Dolce & Gabbana","Dumont","Elizabeth Arden","Emper","Emporio Armani","EOS","Ferrari","FRAGANCE ONE","Fragrance World","French Avenue","Giorgio Armani","Givenchy","GUCCI","Guess","Hugo Boss","INITIO","Issey Miyake","Jean Paul Gaultier","Jeremy Fragance","Jimmy Choo","Jo Milano","JOOP HOMME","Juicy Couture","KADE SPADE","King of Kings","Lancome","Lattafa","Le Bonheur Parfum","LE Labo","Lolita Lempicka","LORENZO PAZZAGLIA","Loris Azzaro","Macarena","Maison Alhambra","MAISON CRIVELLI","Maison Francis Kurkdjian","Maison Margiela","MANCERA","Marc Jacobs","MERCEDES BENZ","Montale","MONTBLANC","Moschino","MUGLER","Nautica","Orientica","Other","Paco Rabanne","Parfums de Marly","Paris Corner","Paris Hilton","Perry Ellis","Pet Aroma","POLO","Prada","Ralph Lauren","Rasasi","RAYHAAN","RIIFFS","SABRINA CARPENTER","SALVATORE FERRAGAMO","Sol de Janeiro","SOSPIRO","Tom Ford","Valentino","Versace","Victor & Rolf","XERJOFF","YSL"],"stats":{"total":732,"nuevos":0,"en_camino":47,"ofertas":0},"filters":{"filter":"todos","brand":null,"search":null,"sort":"relevancia"},"trending":[{"id":819,"slug":"oud-for-greatness","brand":"INITIO","brand_slug":"initio","name":"OUD FOR GREATNESS","size":"90ml","concentration":"EDP","gender":"U","price":12700,"stock_status":"out_of_stock","stock_label":"Agotado","is_new":true,"ribbon":"agotado","is_en_camino":false,"is_recent_arrival":false,"image_url":"\/storage\/products\/819-721cfd5a-1f92-42e9-937f-f491c217201f.jpg","offer":null,"stock_qty":0,"eta":null,"gallery":null,"notes_pyramid":null,"accords":null,"longevity":null,"sillage":null,"popularity":null,"season_ranking":null,"occasion_ranking":null},{"id":818,"slug":"rose-goldea-delight","brand":"Bvlgari","brand_slug":"bvlgari","name":"ROSE GOLDEA DELIGHT","size":"90ml","concentration":"EDT","gender":"F","price":3950,"stock_status":"low_stock","stock_label":"Pocas unidades","is_new":true,"ribbon":null,"is_en_camino":false,"is_recent_arrival":false,"image_url":"\/storage\/products\/818-7cac5c5b-56a5-435b-978d-ef9fafecac5f.jpg","offer":null,"stock_qty":1,"eta":null,"gallery":null,"notes_pyramid":null,"accords":null,"longevity":null,"sillage":null,"popularity":null,"season_ranking":null,"occasion_ranking":null},{"id":813,"slug":"khamra-waha","brand":"Lattafa","brand_slug":"lattafa","name":"KHAMRA WAHA","size":"100ml","concentration":"EDP","gender":"U","price":2600,"stock_status":"out_of_stock","stock_label":"Agotado","is_new":true,"ribbon":"agotado","is_en_camino":false,"is_recent_arrival":false,"image_url":"\/storage\/products\/813-40d9ffaf-dd02-4abb-a5ed-cbde407cd855.jpg","offer":null,"stock_qty":0,"eta":null,"gallery":null,"notes_pyramid":{"top":[],"base":[],"heart":[]},"accords":[],"longevity":null,"sillage":null,"popularity":null,"season_ranking":null,"occasion_ranking":null},{"id":811,"slug":"dunescape-dubai","brand":"Armaf","brand_slug":"armaf","name":"Dunescape dubai","size":"100ml","concentration":"EDP","gender":"U","price":2450,"stock_status":"in_stock","stock_label":"Disponible","is_new":true,"ribbon":null,"is_en_camino":false,"is_recent_arrival":false,"image_url":"\/storage\/products\/811-4b91fbf2-41c6-4216-bee5-c6f7fd13c300.jpg","offer":null,"stock_qty":11,"eta":null,"gallery":null,"notes_pyramid":{"top":[],"base":[],"heart":[]},"accords":[],"longevity":null,"sillage":null,"popularity":null,"season_ranking":null,"occasion_ranking":null},{"id":810,"slug":"eter-arabian-sky","brand":"Armaf","brand_slug":"armaf","name":"ETER ARABIAN SKY","size":"100ml","concentration":"EDP","gender":"U","price":2450,"stock_status":"out_of_stock","stock_label":"Agotado","is_new":true,"ribbon":"agotado","is_en_camino":false,"is_recent_arrival":false,"image_url":"\/storage\/products\/810-32de6e1b-6b71-4a39-9879-9d6886ff6299.jpg","offer":null,"stock_qty":0,"eta":null,"gallery":null,"notes_pyramid":{"top":[],"base":[],"heart":[]},"accords":[],"longevity":null,"sillage":null,"popularity":null,"season_ranking":null,"occasion_ranking":null},{"id":807,"slug":"gift-set-polo-blue-for-men-4-2-oz-edt-spray-3-piezas","brand":"Ralph Lauren","brand_slug":"ralph-lauren","name":"Gift Set Polo Blue For Men 4.2 Oz Edt Spray 3 Piezas","size":"125ml","concentration":"EDT","gender":"M","price":4250,"stock_status":"low_stock","stock_label":"Pocas unidades","is_new":true,"ribbon":null,"is_en_camino":false,"is_recent_arrival":false,"image_url":"\/storage\/products\/807-ceaff306-f7c9-45a8-9826-fcb71bccda4f.jpg","offer":null,"stock_qty":1,"eta":null,"gallery":null,"notes_pyramid":null,"accords":null,"longevity":null,"sillage":null,"popularity":null,"season_ranking":null,"occasion_ranking":null},{"id":806,"slug":"coach-dream-women-3-0-oz-edp-spray","brand":"Coach","brand_slug":"coach","name":"Coach Dream Women 3.0 Oz Edp Spray","size":"90ml","concentration":"EDP","gender":"F","price":3150,"stock_status":"out_of_stock","stock_label":"Agotado","is_new":true,"ribbon":"agotado","is_en_camino":false,"is_recent_arrival":false,"image_url":"\/storage\/products\/806-e8bbd9ae-9b3e-4532-b1a5-4b2e316a65d3.jpg","offer":null,"stock_qty":0,"eta":null,"gallery":null,"notes_pyramid":null,"accords":null,"longevity":null,"sillage":null,"popularity":null,"season_ranking":null,"occasion_ranking":null},{"id":801,"slug":"peace-love34-oz-edp-spray","brand":"Lattafa","brand_slug":"lattafa","name":"(PEACE &LOVE)3.4 OZ EDP SPRAY","size":"100ml","concentration":"EDP","gender":"U","price":2250,"stock_status":"out_of_stock","stock_label":"Agotado","is_new":false,"ribbon":"agotado","is_en_camino":false,"is_recent_arrival":false,"image_url":"\/storage\/products\/801-0753be24-ca1a-457b-90fb-c22714c4c788.png","offer":null,"stock_qty":0,"eta":null,"gallery":null,"notes_pyramid":{"top":[],"base":[],"heart":[]},"accords":[],"longevity":null,"sillage":null,"popularity":null,"season_ranking":null,"occasion_ranking":null}],"query":"","totalResults":null,"pagination":{"current_page":1,"last_page":35,"per_page":24,"total":823,"links":[{"url":null,"label":"&laquo; Previous","page":null,"active":false},{"url":"https:\/\/nuevalux.com\/rd\/mayoristas\/lf\/productos?branch=1&page=1","label":"1","page":1,"active":true},{"url":"https:\/\/nuevalux.com\/rd\/mayoristas\/lf\/productos?branch=1&page=2","label":"2","page":2,"active":false},{"url":"https:\/\/nuevalux.com\/rd\/mayoristas\/lf\/productos?branch=1&page=3","label":"3","page":3,"active":false},{"url":"https:\/\/nuevalux.com\/rd\/mayoristas\/lf\/productos?branch=1&page=4","label":"4","page":4,"active":false},{"url":"https:\/\/nuevalux.com\/rd\/mayoristas\/lf\/productos?branch=1&page=5","label":"5","page":5,"active":false},{"url":"https:\/\/nuevalux.com\/rd\/mayoristas\/lf\/productos?branch=1&page=6","label":"6","page":6,"active":false},{"url":"https:\/\/nuevalux.com\/rd\/mayoristas\/lf\/productos?branch=1&page=7","label":"7","page":7,"active":false},{"url":"https:\/\/nuevalux.com\/rd\/mayoristas\/lf\/productos?branch=1&page=8","label":"8","page":8,"active":false},{"url":"https:\/\/nuevalux.com\/rd\/mayoristas\/lf\/productos?branch=1&page=9","label":"9","page":9,"active":false},{"url":"https:\/\/nuevalux.com\/rd\/mayoristas\/lf\/productos?branch=1&page=10","label":"10","page":10,"active":false},{"url":null,"label":"...","active":false},{"url":"https:\/\/nuevalux.com\/rd\/mayoristas\/lf\/productos?branch=1&page=34","label":"34","page":34,"active":false},{"url":"https:\/\/nuevalux.com\/rd\/mayoristas\/lf\/productos?branch=1&page=35","label":"35","page":35,"active":false},{"url":"https:\/\/nuevalux.com\/rd\/mayoristas\/lf\/productos?branch=1&page=2","label":"Next &raquo;","page":2,"active":false}]},"filterOptions":{"genders":[{"id":1,"slug":"masculine","label":"Masculino"},{"id":2,"slug":"feminine","label":"Femenino"},{"id":3,"slug":"unisex","label":"Unisex"}],"concentrations":[{"id":8,"label":"Absolu"},{"id":6,"label":"Cologne"},{"id":1,"label":"EDC"},{"id":3,"label":"EDP"},{"id":2,"label":"EDT"},{"id":5,"label":"ExDP"},{"id":7,"label":"Intense"},{"id":4,"label":"P"}],"brands":[{"id":1,"label":"Afnan"},{"id":2,"label":"Al Haramain"},{"id":88,"label":"Arabiyat Prestige"},{"id":4,"label":"Ariana Grande"},{"id":5,"label":"Armaf"},{"id":93,"label":"Benetton"},{"id":6,"label":"Bentley"},{"id":7,"label":"Bharara"},{"id":91,"label":"BILLIE EILISH"},{"id":8,"label":"Bond No. 9"},{"id":103,"label":"BRITNEY SPEARS"},{"id":73,"label":"Bulgary"},{"id":9,"label":"Burberry"},{"id":102,"label":"Bvlgari"},{"id":66,"label":"BY JUICY COUTURE"},{"id":68,"label":"BYREDO"},{"id":10,"label":"Calvin Klein"},{"id":11,"label":"Carolina Herrera"},{"id":95,"label":"Cartier"},{"id":62,"label":"CHANEL"},{"id":60,"label":"CLAIBORN"},{"id":105,"label":"CLINIQUE"},{"id":84,"label":"CLIVE CHRISTIAN"},{"id":12,"label":"Club de Nuit"},{"id":13,"label":"Coach"},{"id":14,"label":"Coco Chanel"},{"id":76,"label":"CREED"},{"id":15,"label":"Diesel"},{"id":16,"label":"Dior"},{"id":17,"label":"Dolce & Gabbana"},{"id":56,"label":"Dumont"},{"id":18,"label":"Elizabeth Arden"},{"id":19,"label":"Emper"},{"id":20,"label":"Emporio Armani"},{"id":87,"label":"EOS"},{"id":21,"label":"Ferrari"},{"id":74,"label":"FRAGANCE ONE"},{"id":89,"label":"Fragrance World"},{"id":22,"label":"French Avenue"},{"id":24,"label":"Giorgio Armani"},{"id":25,"label":"Givenchy"},{"id":69,"label":"GUCCI"},{"id":57,"label":"Guess"},{"id":26,"label":"Hugo Boss"},{"id":71,"label":"INITIO"},{"id":27,"label":"Issey Miyake"},{"id":28,"label":"Jean Paul Gaultier"},{"id":82,"label":"Jeremy Fragance"},{"id":80,"label":"Jimmy Choo"},{"id":29,"label":"Jo Milano"},{"id":67,"label":"JOOP HOMME"},{"id":30,"label":"Juicy Couture"},{"id":90,"label":"KADE SPADE"},{"id":63,"label":"King of Kings"},{"id":31,"label":"Lancome"},{"id":32,"label":"Lattafa"},{"id":33,"label":"Le Bonheur Parfum"},{"id":70,"label":"LE Labo"},{"id":34,"label":"Lolita Lempicka"},{"id":85,"label":"LORENZO PAZZAGLIA"},{"id":35,"label":"Loris Azzaro"},{"id":36,"label":"Macarena"},{"id":37,"label":"Maison Alhambra"},{"id":86,"label":"MAISON CRIVELLI"},{"id":97,"label":"Maison Francis Kurkdjian"},{"id":38,"label":"Maison Margiela"},{"id":64,"label":"MANCERA"},{"id":65,"label":"Marc Jacobs"},{"id":77,"label":"MERCEDES BENZ"},{"id":40,"label":"Montale"},{"id":39,"label":"MONTBLANC"},{"id":41,"label":"Moschino"},{"id":72,"label":"MUGLER"},{"id":58,"label":"Nautica"},{"id":42,"label":"Orientica"},{"id":96,"label":"Other"},{"id":43,"label":"Paco Rabanne"},{"id":59,"label":"Parfums de Marly"},{"id":92,"label":"Paris Corner"},{"id":106,"label":"Paris Hilton"},{"id":45,"label":"Perry Ellis"},{"id":46,"label":"Pet Aroma"},{"id":75,"label":"POLO"},{"id":47,"label":"Prada"},{"id":48,"label":"Ralph Lauren"},{"id":49,"label":"Rasasi"},{"id":98,"label":"RAYHAAN"},{"id":99,"label":"RIIFFS"},{"id":79,"label":"SABRINA CARPENTER"},{"id":78,"label":"SALVATORE FERRAGAMO"},{"id":50,"label":"Sol de Janeiro"},{"id":81,"label":"SOSPIRO"},{"id":51,"label":"Tom Ford"},{"id":52,"label":"Valentino"},{"id":53,"label":"Versace"},{"id":54,"label":"Victor & Rolf"},{"id":61,"label":"XERJOFF"},{"id":55,"label":"YSL"}]},"activeFilters":[],"matchedBrands":[],"discoveryFilters":{"gender":[],"concentration":[],"brand_filter":[],"acorde":[],"temporada":[],"ocasion":[],"duracion":[],"proyeccion":[]}},"url":"\/rd\/mayoristas\/lf\/productos?branch=1&page=1","version":"4f05124b689ebbadc1363ee631e53423","sharedProps":["errors","auth","branch","store","flash","navigation","pending_transfers","notifications","training","helpStats"]}
